{
	"info": {
		"_postman_id": "72044757-6be4-4dce-8d9f-d3d02d1b5765",
		"name": "gzCollection",
		"schema": "https://schema.getpostman.com/json/collection/v2.1.0/collection.json",
		"_exporter_id": "20977943"
	},
	"item": [
		{
			"name": "Matches",
			"request": {
				"method": "GET",
				"header": [
					{
						"key": "Authorization",
						"value": "{{gzAuthorization}}",
						"type": "text"
					}
				],
				"url": {
					"raw": "{{dev}}/games/",
					"host": [
						"{{dev}}"
					],
					"path": [
						"games",
						""
					]
				}
			},
			"response": []
		},
		{
			"name": "token",
			"request": {
				"method": "POST",
				"header": [],
				"body": {
					"mode": "formdata",
					"formdata": [
						{
							"key": "username",
							"value": "{{gzUserName}}",
							"type": "text"
						},
						{
							"key": "password",
							"value": "{{gzPassWord}}",
							"type": "text"
						}
					]
				},
				"url": {
					"raw": "http://dev.broadcast.amalivestream.com/api/v2/token",
					"protocol": "http",
					"host": [
						"dev",
						"broadcast",
						"amalivestream",
						"com"
					],
					"path": [
						"api",
						"v2",
						"token"
					]
				}
			},
			"response": []
		},
		{
			"name": "adding_event",
			"request": {
				"method": "POST",
				"header": [
					{
						"key": "Authorization",
						"value": "{{gzAuthorization}}",
						"type": "text"
					}
				],
				"body": {
					"mode": "raw",
					"raw": "{\r\n\"type\": \"Injury\",\r\n\"gameMinutes\": 55,\r\n\"gameSeconds\": 16,\r\n\"clubId\": \"4082238b-9ed2-44ec-a1d2-81446340e34d\",\r\n\"playerId\": null,\r\n\"replacePlayerId\": \"1bcf97f4-825a-4b8e-a7c4-2a990cd03134\",\r\n\"parentMarkerId\": null,\r\n\"creationTicks\": 1656922756100\r\n}",
					"options": {
						"raw": {
							"language": "json"
						}
					}
				},
				"url": {
					"raw": "{{dev}}/events/22768d45-a654-4d33-9620-4c8c289edcad",
					"host": [
						"{{dev}}"
					],
					"path": [
						"events",
						"22768d45-a654-4d33-9620-4c8c289edcad"
					]
				}
			},
			"response": []
		},
		{
			"name": "Target-match",
			"request": {
				"method": "GET",
				"header": [
					{
						"key": "Authorization",
						"value": "{{gzAuthorization}}",
						"type": "text"
					}
				],
				"url": {
					"raw": "{{dev}}/games/322e9050-489a-4059-89cb-84a96e8b1b18",
					"host": [
						"{{dev}}"
					],
					"path": [
						"games",
						"322e9050-489a-4059-89cb-84a96e8b1b18"
					]
				}
			},
			"response": []
		},
		{
			"name": "Season",
			"request": {
				"method": "GET",
				"header": [
					{
						"key": "Authorization",
						"value": "{{gzAuthorization}}",
						"type": "text"
					}
				],
				"url": {
					"raw": "{{dev}}/data/season/677f3612-0cbb-4de7-9efb-608b71e0fbe9",
					"host": [
						"{{dev}}"
					],
					"path": [
						"data",
						"season",
						"677f3612-0cbb-4de7-9efb-608b71e0fbe9"
					]
				}
			},
			"response": []
		},
		{
			"name": "League",
			"request": {
				"method": "GET",
				"header": [
					{
						"key": "Authorization",
						"value": "{{gzAuthorization}}",
						"type": "text"
					}
				],
				"url": {
					"raw": "{{dev}}/data/league/b26764b5-c849-4aa7-944d-936b40413706",
					"host": [
						"{{dev}}"
					],
					"path": [
						"data",
						"league",
						"b26764b5-c849-4aa7-944d-936b40413706"
					]
				}
			},
			"response": []
		},
		{
			"name": "Club",
			"request": {
				"method": "GET",
				"header": [
					{
						"key": "Authorization",
						"value": "{{gzAuthorization}}",
						"type": "text"
					}
				],
				"url": {
					"raw": "{{dev}}/data/club/16d07540-4620-4551-92bb-158b771f5232",
					"host": [
						"{{dev}}"
					],
					"path": [
						"data",
						"club",
						"16d07540-4620-4551-92bb-158b771f5232"
					]
				}
			},
			"response": []
		},
		{
			"name": "Player",
			"request": {
				"method": "GET",
				"header": [
					{
						"key": "Authorization",
						"value": "{{gzAuthorization}}",
						"type": "text"
					}
				],
				"url": {
					"raw": "{{dev}}/data/player/12e5aab9-5f5f-44d9-ac6e-f03207ed5359",
					"host": [
						"{{dev}}"
					],
					"path": [
						"data",
						"player",
						"12e5aab9-5f5f-44d9-ac6e-f03207ed5359"
					]
				}
			},
			"response": []
		},
		{
			"name": "Event",
			"request": {
				"method": "GET",
				"header": [
					{
						"key": "Authorization",
						"value": "{{gzAuthorization}}",
						"type": "text"
					}
				],
				"url": {
					"raw": "{{dev}}/events/322e9050-489a-4059-89cb-84a96e8b1b18",
					"host": [
						"{{dev}}"
					],
					"path": [
						"events",
						"322e9050-489a-4059-89cb-84a96e8b1b18"
					]
				}
			},
			"response": []
		},
		{
			"name": "TargetEvent",
			"request": {
				"method": "GET",
				"header": [
					{
						"key": "Authorization",
						"value": "{{gzAuthorization}}",
						"type": "text"
					}
				],
				"url": {
					"raw": "{{dev}}/events/322e9050-489a-4059-89cb-84a96e8b1b18?fromTicks=637896338133837268",
					"host": [
						"{{dev}}"
					],
					"path": [
						"events",
						"322e9050-489a-4059-89cb-84a96e8b1b18"
					],
					"query": [
						{
							"key": "fromTicks",
							"value": "637896338133837268"
						}
					]
				}
			},
			"response": []
		},
		{
			"name": "Event_extra-true",
			"request": {
				"method": "GET",
				"header": [
					{
						"key": "Authorization",
						"value": "{{gzAuthorization}}",
						"type": "text"
					}
				],
				"url": {
					"raw": "{{dev}}/events/22768d45-a654-4d33-9620-4c8c289edcad?extra=True",
					"host": [
						"{{dev}}"
					],
					"path": [
						"events",
						"22768d45-a654-4d33-9620-4c8c289edcad"
					],
					"query": [
						{
							"key": "extra",
							"value": "True"
						}
					]
				}
			},
			"response": []
		},
		{
			"name": "IMG",
			"protocolProfileBehavior": {
				"disableBodyPruning": true
			},
			"request": {
				"method": "GET",
				"header": [
					{
						"key": "Authorization",
						"value": "{{gzAuthorization}}",
						"type": "text"
					}
				],
				"body": {
					"mode": "formdata",
					"formdata": []
				},
				"url": {
					"raw": "{{dev}}/img/2200e211-2d4a-48a3-9cff-8aaf2e04127a.png",
					"host": [
						"{{dev}}"
					],
					"path": [
						"img",
						"2200e211-2d4a-48a3-9cff-8aaf2e04127a.png"
					]
				}
			},
			"response": []
		},
		{
			"name": "deleting_event",
			"request": {
				"method": "DELETE",
				"header": [
					{
						"key": "Authorization",
						"value": "{{gzAuthorization}}",
						"type": "text"
					}
				],
				"url": {
					"raw": "{{dev}}/events/22768d45-a654-4d33-9620-4c8c289edcad/d100e741-5614-4de9-b85f-0f4eae3270ef ",
					"host": [
						"{{dev}}"
					],
					"path": [
						"events",
						"22768d45-a654-4d33-9620-4c8c289edcad",
						"d100e741-5614-4de9-b85f-0f4eae3270ef "
					]
				}
			},
			"response": []
		}
	]
}
